{
  "type": "service_account",
  "project_id": "fsd-project-310916",
  "private_key_id": "c5c1f8319b25596f711d41bd76ea38240f5f8b1d",
  "private_key": "-----BEGIN PRIVATE KEY-----\nMIIEvQIBADANBgkqhkiG9w0BAQEFAASCBKcwggSjAgEAAoIBAQDFLN2VeHlT7brX\n2cBb7IIGYv8s7EBhyx/0//CLMl5YwofmzipwHKrpucdYLF0BCy4XVpkMTGjAY+EU\njKBHv6SqjWxbjGnuEj/Vjbu20RE2nByW7SgP/d3+1gY+VxM8j/vHc530Po6StZeJ\n9+YXFlkje2fZKFN5aW0djLSDv+Im1S3Tdr3AYmPRzMdP39TCpzFrJzMPAbLkeEa3\n77UB065lng7TmBXvFTz5vNP5ieV0TnJLkFXHUFefwPZQ0oL+2oIp4sHbSIuEZyO7\nTAouW60H3Gmuj3O0oQLGwsBnhIROzIX6+6tGjErM7oVbJIuVZD1rQgeWu8R+43qT\nqT5RHdXVAgMBAAECggEAMmPDYxoNQ64rBFPBTZy1JAWzudrMn1FmYtnvstsV8nAQ\nhCMnBEzHPwD72WRJBmXBizRV26dBU/2SfYpswblPz0hiK0lInw9p4d0dXlyynfaq\ndcW46dFSpPg0U0U0hNM1IKVC9jLwg7zFs/w3AKp08FTu1rfwEUSonpchYNQuawa4\nCGrao39m0dch3LYDi/Is91FR49zVmxkZqRfafF5PQblWaBJ3pSUVPyYf4bGVpl7q\na/63V7LfdBWY8F/+JCudpbfyE1LXXQsUhHcYzEl1a5I+gDGU6vMwwk70o0UDgh6X\noQjcaKjke3gMnC9bmcnBHBPkiNL/GiLH7H4Mn0Gp5wKBgQDp6CC0Y4PiGG6VZGyu\n53cgj6kvFaB1XVnyzYKjkriuBj7AHfYJnEwvoUs0frm0Ueleh0xnlhk5vFcsaEWd\nIwLQGvyiD/ox4zjo2jmCIr3Wr29Gst1ZhsmZP7sndoQs+ebowwb9nVU88c38Z00+\nL0+e5zgDYg691cYE9AhOV8pSawKBgQDXzJG3PyOqkcXkhOW2WG/X+XwOTdFwpEds\n0dErBILoGXr8i/AFX+lhp1q3zvr4ITtvwLt/2+/wpzZyOgkWfjP5PC/S4E0b8u7Z\nmuW+FFcgPXQZDIXvSAfS+IB6slqIjBEBGpITdV0oRzLoAYtioJfy9cY/tuNN00fI\nV248R4UIvwKBgQDeZ1LBcmXx0t1CuuwEGh3RHgf1txCMx6hBD1sKAPYMse90aIiK\ndsyR9UE2ttAIPmIw+WCSlcuCdCxHExYt5R5FlYNk7OAuEykHboeDz1jGCqU5idSh\nzWFej5R6X1wqD6uY4eeBudlUS25acjalzAJeyucdgF0X722LRCWpqBu95QKBgE6F\n4pPiRrEfP/nqHcgfH/tfjbOKv2YUcOT45/qWNqgL9YOFy/24q6xcABeYGhxFw2Hj\nqJZaylEwFxCza3Ei1Pig3OoHsic0W5MU2Po0XoudsOwYcXfjJu2ufNmoombDSMC1\nEWhBMXehiLWBMl3d/8xpgAzZGJbOBXWx0qveflrzAoGAD/Gy+QVy+sYPF5GoTLe2\nF2MA4KvBFD5dMFbYmteYOzo8D9EKQ5W5xgkV8ViVnpub1n5/9gTaaEVFZTYhsA7r\nfoKg7KaptPq1Ufn6KDVOZZrfYwjfqCWOGvTp3YBLz2Ifwxt79SZlbarJsaiP0jln\nWfYJy6vTUKV9h4TNWBiryjY=\n-----END PRIVATE KEY-----\n",
  "client_email": "datastoreuser@fsd-project-310916.iam.gserviceaccount.com",
  "client_id": "112658961962492613399",
  "auth_uri": "https://accounts.google.com/o/oauth2/auth",
  "token_uri": "https://oauth2.googleapis.com/token",
  "auth_provider_x509_cert_url": "https://www.googleapis.com/oauth2/v1/certs",
  "client_x509_cert_url": "https://www.googleapis.com/robot/v1/metadata/x509/datastoreuser%40fsd-project-310916.iam.gserviceaccount.com"
}
